text-embedding
…
reviews_embeddings <- reviews |> 
  mutate(embeddings = embed_text(text = full_text)) |> 
  select(id, rating, embeddings) |> 
  unnest_wider(embeddings)
#> ✔ embedded 250 texts [1m 57.8s]       

The resulting data.frame contains the ID and rating along the 4,096
embedding dimensions:

reviews_embeddings
#> # A tibble: 250 × 4,098
#>       id rating  dim_1  dim_2  dim_3  dim_4 dim_5  dim_6  dim_7
#>    <dbl> <fct>   <dbl>  <dbl>  <dbl>  <dbl> <dbl>  <dbl>  <dbl>
#>  1     0 <5      1.85  -1.71   1.47   0.478 -1.75  0.771  3.01 
#>  2     1 5       1.14  -3.61   2.10  -0.385 -4.11 -3.09   0.990
#>  3     2 <5     -3.35   0.172 -3.49  -0.569 -3.14  1.25  -0.102
#>  4     3 5       2.41  -3.97  -1.27  -0.839 -4.06 -2.64   0.672
#>  5     4 5      -0.144 -1.98   0.367 -0.908 -2.29 -0.805 -0.921
#>  6     5 <5     -0.975 -1.47   0.441 -1.90  -3.05 -1.53  -0.941
#>  7     6 5       1.35  -0.397  0.874  0.643 -1.26 -2.45   0.659
#>  8     7 <5      1.63  -2.00  -0.619 -0.981 -3.44 -1.80   0.440
#>  9     8 5      -1.33  -2.35   0.671 -1.46  -3.16 -1.44  -0.880
#> 10     9 5       1.39  -2.13   1.36  -0.702 -4.00 -1.37   0.979
#> # ℹ 240 more rows
#> # ℹ 4,089 more variables: dim_8 <dbl>, dim_9 <dbl>, dim_10 <dbl>,
#> #   dim_11 <dbl>, dim_12 <dbl>, dim_13 <dbl>, dim_14 <dbl>,
#> #   dim_15 <dbl>, dim_16 <dbl>, dim_17 <dbl>, dim_18 <dbl>,
#> #   dim_19 <dbl>, dim_20 <dbl>, dim_21 <dbl>, dim_22 <dbl>,
#> #   dim_23 <dbl>, dim_24 <dbl>, dim_25 <dbl>, dim_26 <dbl>,
#> #   dim_27 <dbl>, dim_28 <dbl>, dim_29 <dbl>, dim_30 <dbl>, …
…
